digraph "Program" {
  compound=true
  node [ fontsize="10", fontname="Helvetica"];
  edge [ labelfontsize="10", labelfontname="Helvetica"];
  dir_dd9648d51d0cc76533772683c862213b [shape=box, label="Program", style="filled", fillcolor="#eeeeff", pencolor="black", URL="dir_dd9648d51d0cc76533772683c862213b.html"];
  dir_b05a5fa85f84bfc9013183c9d87f9a36 [shape=box label="Utilities" URL="dir_b05a5fa85f84bfc9013183c9d87f9a36.html"];
  dir_dd9648d51d0cc76533772683c862213b->dir_b05a5fa85f84bfc9013183c9d87f9a36 [headlabel="2", labeldistance=1.5 headhref="dir_000008_000012.html"];
}
