digraph "Graphical Class Hierarchy"
{
 // LATEX_PDF_SIZE
  edge [fontname="Helvetica",fontsize="10",labelfontname="Helvetica",labelfontsize="10"];
  node [fontname="Helvetica",fontsize="10",shape=record];
  rankdir="LR";
  Node0 [label="cuTest::TesterBase",height=0.2,width=0.4,color="black", fillcolor="white", style="filled",URL="$classcuTest_1_1TesterBase.html",tooltip="The base class for unit tests."];
  Node0 -> Node1 [dir="back",color="midnightblue",fontsize="10",style="solid",fontname="Helvetica"];
  Node1 [label="DataStructure::SmartFixed\lArrayTester",height=0.2,width=0.4,color="black", fillcolor="white", style="filled",URL="$classDataStructure_1_1SmartFixedArrayTester.html",tooltip="TESTER for the SmartFixedArray."];
}
